{
	"builders": [
		{
			"name": "ubuntu-14.04.i386.virtualbox",
			"type": "virtualbox-iso",
			"guest_os_type": "Ubuntu",
			"iso_urls": [
				"http://releases.ubuntu.com/14.04/ubuntu-14.04.2-server-i386.iso",
				"http://nl.releases.ubuntu.com/14.04/ubuntu-14.04.2-server-i386.iso"
			],
			"iso_checksum": "76524ab9502a34b983ed56af2d5a72835ce41aec1e2b4c0cb7788ef596958ed6",
			"iso_checksum_type": "sha256",
			"ssh_username": "vagrant",
			"ssh_password": "vagrant",
			"http_directory": "../http/ubuntu/",
			"headless": true,
			"boot_wait": "5s",
			"boot_command": [
				"<esc><esc><enter><wait>",
				"/install/vmlinuz ",
				"preseed/url=http://{{.HTTPIP}}:{{.HTTPPort}}/preseed.cfg ",
				"debian-installer=en_US auto locale=en_US kbd-chooser/method=us ",
				"hostname={{.Name}} ",
				"fb=false debconf/frontend=noninteractive ",
				"keyboard-configuration/modelcode=SKIP keyboard-configuration/layout=USA ",
				"keyboard-configuration/variant=USA console-setup/ask_detect=false ",
				"initrd=/install/initrd.gz -- <enter>"
			],
			"shutdown_command": "echo 'vagrant' | sudo -S -E shutdown -P now",
			"hard_drive_interface": "sata",
			"disk_size": 15000
		}
	],
	"provisioners": [
	     {
              "type": "file",
              "source": "../files",
              "destination": "/tmp/files"
          },
		{
			"type": "shell",
			"execute_command": "echo 'vagrant' | sudo -S -E sh {{.Path}}",
			"override": {
				"ubuntu-14.04.i386.virtualbox": {
					"scripts": [
						"../script/ubuntu/update.sh",
						"../script/ubuntu/network.sh",
						"../script/common/vagrant.sh",
						"../script/common/virtualbox.sh",
						"../script/common/tools.sh",
						"../script/ubuntu/cleanup.sh"
					]
				}
			}
		}
	],

	"post-processors": [
		{
			"type": "vagrant",
			"output": "../build/{{.BuildName}}.box"
		}
	]
}
